[gd_scene load_steps=3 format=3 uid="uid://cwcac8frq2leu"]

[ext_resource type="Script" path="res://Scenes/PauseScreen.gd" id="1_7l5hg"]
[ext_resource type="FontFile" uid="uid://ch103gi2tob72" path="res://font/andina.ttf" id="2_swo2w"]

[node name="PauseScreen" type="CanvasLayer"]
process_mode = 3
script = ExtResource("1_7l5hg")

[node name="ColorRect" type="ColorRect" parent="."]
anchors_preset = 15
anchor_right = 1.0
anchor_bottom = 1.0
grow_horizontal = 2
grow_vertical = 2
color = Color(0, 0, 0, 0.6)

[node name="VBoxContainer" type="VBoxContainer" parent="."]
anchors_preset = 8
anchor_left = 0.5
anchor_top = 0.5
anchor_right = 0.5
anchor_bottom = 0.5
offset_left = -25.5
offset_top = -20.0
offset_right = 25.5
offset_bottom = 20.0
grow_horizontal = 2
grow_vertical = 2
theme_override_constants/separation = 16

[node name="Label" type="Label" parent="VBoxContainer"]
layout_mode = 2
theme_override_fonts/font = ExtResource("2_swo2w")
theme_override_font_sizes/font_size = 70
text = "PAUSE"
horizontal_alignment = 1
vertical_alignment = 1

[node name="ResumeButton" type="Button" parent="VBoxContainer"]
layout_mode = 2
theme_override_font_sizes/font_size = 30
text = "RESUME GAME"

[node name="RestartButton" type="Button" parent="VBoxContainer"]
layout_mode = 2
theme_override_font_sizes/font_size = 30
text = "RESTART"

[node name="StartMenuButton" type="Button" parent="VBoxContainer"]
layout_mode = 2
theme_override_font_sizes/font_size = 30
text = "EXIT TO MENU"

[connection signal="pressed" from="VBoxContainer/ResumeButton" to="." method="_on_resume_button_pressed"]
[connection signal="pressed" from="VBoxContainer/RestartButton" to="." method="_on_restart_button_pressed"]
[connection signal="pressed" from="VBoxContainer/StartMenuButton" to="." method="_on_start_menu_button_pressed"]
