[gd_scene load_steps=3 format=3 uid="uid://xxdnhelw0vho"]

[ext_resource type="Script" path="res://Scenes/WinScreen.gd" id="1_ancci"]
[ext_resource type="FontFile" uid="uid://ch103gi2tob72" path="res://font/andina.ttf" id="2_kddf2"]

[node name="WinScreen" type="CanvasLayer"]
process_mode = 2
script = ExtResource("1_ancci")

[node name="ColorRect" type="ColorRect" parent="."]
anchors_preset = 15
anchor_right = 1.0
anchor_bottom = 1.0
grow_horizontal = 2
grow_vertical = 2
color = Color(0, 0, 0, 0.6)

[node name="VBoxContainer" type="VBoxContainer" parent="."]
anchors_preset = 8
anchor_left = 0.5
anchor_top = 0.5
anchor_right = 0.5
anchor_bottom = 0.5
offset_left = -196.0
offset_top = -70.0
offset_right = 196.0
offset_bottom = 70.0
grow_horizontal = 2
grow_vertical = 2
theme_override_constants/separation = 16
alignment = 1

[node name="Label" type="Label" parent="VBoxContainer"]
layout_mode = 2
theme_override_fonts/font = ExtResource("2_kddf2")
theme_override_font_sizes/font_size = 70
text = "YOU WIN!"
horizontal_alignment = 1
vertical_alignment = 1

[node name="Button" type="Button" parent="VBoxContainer"]
layout_mode = 2
theme_override_font_sizes/font_size = 30
text = "RESTART GAME"

[connection signal="pressed" from="VBoxContainer/Button" to="." method="_on_button_pressed"]
